{"docs":[{"id":120,"title":"30个好的聊天开场白，永远告别尴尬沉默","slug":"good-conversation-starters","description":"","content":{"root":{"type":"root","format":"","indent":0,"version":1,"children":[{"type":"paragraph","format":"","indent":0,"version":1,"children":[{"mode":"normal","text":"\n闲聊是敌人。\n\n\"你好吗？\"得到\"挺好。\"\n\"天气真疯狂，对吧？\"得到\"是啊。\"\n然后呢？**沉默。**\n\n要建立连接，你需要问那些*要求*故事、观点或感受的问题。你需要像钥匙一样的对话开场白，解锁对方个性的部分。\n\n这里有30个好的对话开场白，按你想建立的连接深度分类。\n\n## 破冰问题（安全但有趣）\n*在你们刚坐下或刚认识某人时使用。它们低风险但高回报。*\n\n### 1. \"这周到目前为止的亮点是什么？\"\n**为什么有效：** 它迫使他们扫描积极的事情。它把能量从\"疲惫/中性\"转变为\"快乐\"。\n\n### 2. \"你最近在忙什么有趣的事吗？\"\n**为什么有效：** \"你是做什么的？\"很无聊。这个问题允许他们谈论爱好、副业或装修项目——不仅仅是他们的朝九晚五。\n\n### 3. \"你是怎么来到[城市名]的？\"\n**为什么有效：** 除非他们出生在这里，否则总有关于工作、关系或冒险渴望的故事。\n\n### 4. \"你最近吃过最好吃的一餐是什么？\"\n**为什么有效：** 每个人都吃饭。每个人都爱食物。这是通用的共同点，很容易引向\"我们应该一起去那里\"。\n\n### 5. \"如果你能打个响指就瞬间擅长一项技能，会是什么？\"\n**为什么有效：** 它揭示了他们隐藏的欲望——无论是弹钢琴（创造力）还是说意大利语（旅行）。\n\n## \"有趣 & 随机\"万能牌\n*当事情变得太严肃时，用这些来注入能量和笑声。*\n\n### 6. \"你有什么不关于政治的有争议的观点？\"\n**为什么有效：** 披萨上加菠萝？穿凉鞋配袜子？它让人们对低风险话题充满热情。\n\n### 7. \"你小时候最喜欢的卡通片是什么？\"\n**为什么有效：** 瞬间怀旧。你们会通过周六早上仪式的共同记忆建立联系。\n\n### 8. \"如果必须在僵尸末日中生存，你在团队中会是什么角色？\"\n**为什么有效：** 他们是领袖？医生？第一个死的人？它揭示了他们如何看待自己。\n\n### 9. \"你在亚马逊上买过的最奇怪的东西是什么？\"\n**为什么有效：** 我们都有凌晨2点的冲动购买。这是一个有趣、脆弱的承认。\n\n### 10. \"如果余生只能吃一种菜系，会是什么？\"\n**为什么有效：** 这是一个经典的假设，能告诉你很多关于他们的口味和旅行偏好的信息。\n\n## \"深度潜水\"（脆弱）\n*只有当你建立了一定默契并想真正了解他们时才使用这些。*\n\n### 11. \"你收到过的哪条建议真正改变了你的生活？\"\n**为什么有效：** 它直接跳到他们的核心价值观和导师。\n\n### 12. \"有什么事情是你 weirdly 充满热情的？\"\n**为什么有效：** 看着他们的眼睛亮起来。无论是专业咖啡还是古代历史，热情是有吸引力的。\n\n### 13. \"如果能回到过去告诉18岁的自己一件事，会是什么？\"\n**为什么有效：** 它邀请他们反思成长和过去的错误，而不会受到评判。\n\n### 14. \"你冒过的最大风险是什么？\"\n**为什么有效：** 冒险是一个重要的性格特征。他们辞掉了工作？搬到了别的国家？向某人表白？\n\n### 15. \"年底前你想完成的一件事是什么？\"\n**为什么有效：** 它把对话转向未来和他们的抱负。\n\n## \"约会夜\"专属\n*为当你坐在潜在浪漫伴侣对面时量身定制。*\n\n### 16. \"你完美周日是什么样的？\"\n**为什么有效：** 它显示他们与你的生活方式的兼容性。他们是早上6点去徒步还是睡到中午？\n\n### 17. \"有人为你做过的最浪漫的事情是什么？\"\n**为什么有效：** 它给你一个作弊码，了解他们在关系中看重什么（礼物？服务行为？话语？）。\n\n### 18. \"你相信一见钟情，还是我应该再走一遍？\"\n**为什么有效：** 好吧，这是个俗气的搭讪台词。但作为笑话使用，它显示你不把自己太当回事。\n\n### 19. \"你在关系中最大的底线是什么？\"\n**为什么有效：** 大胆，但有用。现在就知道他们是否讨厌猫或吸烟者更好。\n\n### 20. \"你约会时最喜欢的记忆是什么？\"\n**为什么有效：** 保持积极。除非你想听关于前任的事，否则不要问\"最糟糕的约会\"。\n\n## 快速射击（用于冷场）\n*快速二选一问题来保持势头。*\n\n21. 早起鸟还是夜猫子？\n22. 海滩度假还是山地旅行？\n23. 咖啡还是茶？\n24. 猫还是狗？\n25. 打电话还是发短信？\n26. 虚构还是非虚构？\n27. 大型派对还是小型聚会？\n28. 做饭还是叫外卖？\n29. 夏天还是冬天？\n30. 计划一切还是随遇而安？\n\n## 结语\n成为一个好的对话者的秘诀不仅仅是问这些问题——而是**倾听答案**。问问题，闭嘴，听。然后问\"为什么？\"或\"告诉我更多。\"这就是连接发生的方式。\n","type":"text","version":1}],"direction":null}],"direction":null}},"author":null,"heroImage":{"id":20,"alt":null,"updatedAt":"2026-02-22T15:42:55.119Z","createdAt":"2026-02-22T15:42:54.578Z","url":"/api/media/file/hero-8.webp","thumbnailURL":null,"filename":"hero-8.webp","mimeType":"image/webp","filesize":106934,"width":1920,"height":1281,"focalX":50,"focalY":50},"publishedAt":"2026-02-21T14:00:22.445Z","category":"Relationships","faqs":[],"language":"zh","translationGroupId":"good-conversation-starters","updatedAt":"2026-02-22T15:42:55.146Z","createdAt":"2026-02-21T14:00:22.446Z"}],"hasNextPage":true,"hasPrevPage":false,"limit":1,"nextPage":2,"page":1,"pagingCounter":1,"prevPage":null,"totalDocs":120,"totalPages":120}